{
  "formatVersion": 3,
  "maps": [
    "map"
  ],
  "filtering": "pixelated",
  "wrapping": "clampToEdge",
  "pixelsPerUnit": 200,
  "framesPerSecond": 8,
  "opacity": null,
  "alphaTest": 0.1,
  "frameOrder": "rows",
  "grid": {
    "width": 32,
    "height": 32
  },
  "origin": {
    "x": 0.5,
    "y": 0.5
  },
  "animations": [
    {
      "id": "0",
      "name": "move-down",
      "startFrameIndex": 0,
      "endFrameIndex": 5,
      "speed": 1
    },
    {
      "id": "1",
      "name": "move-up",
      "startFrameIndex": 12,
      "endFrameIndex": 17,
      "speed": 1
    },
    {
      "id": "2",
      "name": "move-left",
      "startFrameIndex": 18,
      "endFrameIndex": 23,
      "speed": 1
    },
    {
      "id": "3",
      "name": "move-right",
      "startFrameIndex": 6,
      "endFrameIndex": 11,
      "speed": 1
    },
    {
      "id": "4",
      "name": "idle-down",
      "startFrameIndex": 0,
      "endFrameIndex": 0,
      "speed": 1
    },
    {
      "id": "5",
      "name": "idle-up",
      "startFrameIndex": 12,
      "endFrameIndex": 12,
      "speed": 1
    },
    {
      "id": "6",
      "name": "idle-left",
      "startFrameIndex": 18,
      "endFrameIndex": 18,
      "speed": 1
    },
    {
      "id": "7",
      "name": "idle-right",
      "startFrameIndex": 6,
      "endFrameIndex": 6,
      "speed": 1
    },
    {
      "id": "8",
      "name": "attack-down",
      "startFrameIndex": 3,
      "endFrameIndex": 4,
      "speed": 1
    },
    {
      "id": "9",
      "name": "attack-up",
      "startFrameIndex": 15,
      "endFrameIndex": 16,
      "speed": 1
    },
    {
      "id": "10",
      "name": "attack-left",
      "startFrameIndex": 21,
      "endFrameIndex": 22,
      "speed": 1
    },
    {
      "id": "11",
      "name": "attack-right",
      "startFrameIndex": 9,
      "endFrameIndex": 10,
      "speed": 1
    },
    {
      "id": "12",
      "name": "absorbsion",
      "startFrameIndex": 24,
      "endFrameIndex": 29,
      "speed": 1
    },
    {
      "id": "13",
      "name": "death",
      "startFrameIndex": 27,
      "endFrameIndex": 29,
      "speed": 1
    }
  ],
  "mapSlots": {
    "map": "map",
    "light": null,
    "specular": null,
    "alpha": null,
    "normal": null
  }
}