{
  "formatVersion": 3,
  "maps": [
    "map"
  ],
  "filtering": "pixelated",
  "wrapping": "clampToEdge",
  "pixelsPerUnit": 100,
  "framesPerSecond": 5,
  "opacity": null,
  "alphaTest": 0.1,
  "frameOrder": "columns",
  "grid": {
    "width": 16,
    "height": 16
  },
  "origin": {
    "x": 0.5,
    "y": 0.5
  },
  "animations": [
    {
      "id": "0",
      "name": "walkDown",
      "startFrameIndex": 0,
      "endFrameIndex": 3,
      "speed": 1
    },
    {
      "id": "8",
      "name": "hitDown",
      "startFrameIndex": 3,
      "endFrameIndex": 4,
      "speed": 1
    },
    {
      "id": "4",
      "name": "jumpDown",
      "startFrameIndex": 5,
      "endFrameIndex": 5,
      "speed": 1
    },
    {
      "id": "1",
      "name": "walkUp",
      "startFrameIndex": 7,
      "endFrameIndex": 10,
      "speed": 1
    },
    {
      "id": "9",
      "name": "hitUp",
      "startFrameIndex": 10,
      "endFrameIndex": 11,
      "speed": 1
    },
    {
      "id": "5",
      "name": "jumpUp",
      "startFrameIndex": 12,
      "endFrameIndex": 12,
      "speed": 1
    },
    {
      "id": "2",
      "name": "walkLeft",
      "startFrameIndex": 14,
      "endFrameIndex": 17,
      "speed": 1
    },
    {
      "id": "10",
      "name": "hitLeft",
      "startFrameIndex": 17,
      "endFrameIndex": 18,
      "speed": 1
    },
    {
      "id": "6",
      "name": "jumpLeft",
      "startFrameIndex": 19,
      "endFrameIndex": 19,
      "speed": 1
    },
    {
      "id": "3",
      "name": "walkRight",
      "startFrameIndex": 21,
      "endFrameIndex": 24,
      "speed": 1
    },
    {
      "id": "11",
      "name": "hitRight",
      "startFrameIndex": 24,
      "endFrameIndex": 25,
      "speed": 1
    },
    {
      "id": "7",
      "name": "jumpRight",
      "startFrameIndex": 26,
      "endFrameIndex": 26,
      "speed": 1
    },
    {
      "id": "12",
      "name": "die",
      "startFrameIndex": 6,
      "endFrameIndex": 6,
      "speed": 1
    },
    {
      "id": "13",
      "name": "victory",
      "startFrameIndex": 13,
      "endFrameIndex": 13,
      "speed": 1
    },
    {
      "id": "14",
      "name": "special1",
      "startFrameIndex": 20,
      "endFrameIndex": 20,
      "speed": 1
    },
    {
      "id": "15",
      "name": "special2",
      "startFrameIndex": 27,
      "endFrameIndex": 27,
      "speed": 1
    }
  ],
  "mapSlots": {
    "map": "map",
    "light": null,
    "specular": null,
    "alpha": null,
    "normal": null
  }
}