{
  "formatVersion": 1,
  "nodes": [
    {
      "id": "0",
      "name": "Map",
      "children": [
        {
          "id": "1",
          "name": "Player",
          "children": [],
          "components": [],
          "position": {
            "x": 6.356,
            "y": 6.384,
            "z": 3
          },
          "orientation": {
            "x": 0,
            "y": 0,
            "z": 0,
            "w": 1
          },
          "scale": {
            "x": 1,
            "y": 1,
            "z": 1
          },
          "visible": true,
          "layer": 0,
          "prefab": {
            "sceneAssetId": "83"
          }
        },
        {
          "id": "25",
          "name": "back",
          "children": [],
          "components": [
            {
              "type": "SpriteRenderer",
              "config": {
                "formatVersion": 1,
                "spriteAssetId": "279",
                "animationId": null,
                "horizontalFlip": false,
                "verticalFlip": false,
                "castShadow": false,
                "receiveShadow": false,
                "color": "ffffff",
                "overrideOpacity": true,
                "opacity": 0.8,
                "materialType": "basic",
                "shaderAssetId": null
              },
              "id": "0"
            }
          ],
          "position": {
            "x": 3.678128719329834,
            "y": 3.3229987621307373,
            "z": 0
          },
          "orientation": {
            "x": 0,
            "y": 0,
            "z": 0,
            "w": 1
          },
          "scale": {
            "x": 5,
            "y": 5,
            "z": 1
          },
          "visible": true,
          "layer": 0,
          "prefab": null
        }
      ],
      "components": [
        {
          "type": "TileMapRenderer",
          "config": {
            "formatVersion": 1,
            "tileMapAssetId": "206",
            "tileSetAssetId": null,
            "castShadow": false,
            "receiveShadow": false,
            "materialType": "basic",
            "shaderAssetId": null
          },
          "id": "0"
        },
        {
          "type": "ArcadeBody2D",
          "config": {
            "formatVersion": 1,
            "type": "tileMap",
            "movable": true,
            "width": 1,
            "height": 1,
            "offset": {
              "x": 0,
              "y": 0
            },
            "tileMapAssetId": "206",
            "tileSetPropertyName": null,
            "layersIndex": "0"
          },
          "id": "1"
        },
        {
          "type": "Behavior",
          "config": {
            "behaviorName": "GameBehavior",
            "propertyValues": {}
          },
          "id": "2"
        }
      ],
      "position": {
        "x": 0,
        "y": 0,
        "z": 0
      },
      "orientation": {
        "x": 0,
        "y": 0,
        "z": 0,
        "w": 1
      },
      "scale": {
        "x": 1,
        "y": 1,
        "z": 1
      },
      "visible": true,
      "layer": 0,
      "prefab": null
    },
    {
      "id": "9",
      "name": "Camera",
      "children": [],
      "components": [],
      "position": {
        "x": 4.073,
        "y": 4.003,
        "z": 25
      },
      "orientation": {
        "x": 0,
        "y": 0,
        "z": 0,
        "w": 1
      },
      "scale": {
        "x": 1,
        "y": 1,
        "z": 1
      },
      "visible": true,
      "layer": 0,
      "prefab": {
        "sceneAssetId": "205"
      }
    },
    {
      "id": "12",
      "name": "Warps",
      "children": [
        {
          "id": "11",
          "name": "default",
          "children": [],
          "components": [],
          "position": {
            "x": 6.338651180267334,
            "y": 6.400019645690918,
            "z": 0
          },
          "orientation": {
            "x": 0,
            "y": 0,
            "z": 0,
            "w": 1
          },
          "scale": {
            "x": 1,
            "y": 1,
            "z": 1
          },
          "visible": true,
          "layer": 0,
          "prefab": null
        },
        {
          "id": "5",
          "name": "leave",
          "children": [
            {
              "id": "6",
              "name": "enterText",
              "children": [],
              "components": [
                {
                  "type": "TextRenderer",
                  "config": {
                    "formatVersion": 2,
                    "fontAssetId": "35",
                    "text": "Press \"E\" to leave the dungeon",
                    "alignment": "center",
                    "verticalAlignment": "center",
                    "size": 20,
                    "color": null,
                    "overrideOpacity": false,
                    "opacity": null
                  },
                  "id": "0"
                }
              ],
              "position": {
                "x": -0.037436485290527344,
                "y": 0.4620532989501953,
                "z": 0.10000038146972656
              },
              "orientation": {
                "x": 0,
                "y": 0,
                "z": 0,
                "w": 1
              },
              "scale": {
                "x": 1,
                "y": 1,
                "z": 1
              },
              "visible": false,
              "layer": 0,
              "prefab": null
            }
          ],
          "components": [
            {
              "type": "Behavior",
              "config": {
                "behaviorName": "WarpBehavior",
                "propertyValues": {
                  "area": {
                    "type": "number",
                    "value": 0.4
                  },
                  "targetScene": {
                    "type": "string",
                    "value": "Assets/scenes/Game"
                  },
                  "warpName": {
                    "type": "string",
                    "value": "dungeon_fire"
                  }
                }
              },
              "id": "0"
            }
          ],
          "position": {
            "x": 6.359,
            "y": 6.825,
            "z": 0
          },
          "orientation": {
            "x": 0,
            "y": 0,
            "z": 0,
            "w": 1
          },
          "scale": {
            "x": 1,
            "y": 1,
            "z": 1
          },
          "visible": true,
          "layer": 0,
          "prefab": null
        }
      ],
      "components": [],
      "position": {
        "x": 0,
        "y": 0,
        "z": 22
      },
      "orientation": {
        "x": 0,
        "y": 0,
        "z": 0,
        "w": 1
      },
      "scale": {
        "x": 1,
        "y": 1,
        "z": 1
      },
      "visible": true,
      "layer": 0,
      "prefab": null
    },
    {
      "id": "17",
      "name": "Boss",
      "children": [],
      "components": [
        {
          "type": "SpriteRenderer",
          "config": {
            "formatVersion": 1,
            "spriteAssetId": "86",
            "animationId": null,
            "horizontalFlip": false,
            "verticalFlip": false,
            "castShadow": false,
            "receiveShadow": false,
            "color": "ffffff",
            "overrideOpacity": false,
            "opacity": null,
            "materialType": "basic",
            "shaderAssetId": null
          },
          "id": "0"
        },
        {
          "type": "ArcadeBody2D",
          "config": {
            "formatVersion": 1,
            "type": "box",
            "movable": true,
            "width": 0.5,
            "height": 0.5,
            "offset": {
              "x": 0,
              "y": 0
            },
            "tileMapAssetId": null,
            "tileSetPropertyName": null,
            "layersIndex": null
          },
          "id": "3"
        },
        {
          "type": "Behavior",
          "config": {
            "behaviorName": "BossBehavior",
            "propertyValues": {
              "type": {
                "type": "number",
                "value": 2
              },
              "speed": {
                "type": "number",
                "value": 0.015
              },
              "damage": {
                "type": "number",
                "value": 4
              },
              "distanceAttackRange": {
                "type": "number",
                "value": 1.7
              },
              "maxLife": {
                "type": "number",
                "value": 100
              },
              "rangeStartBattle": {
                "type": "number",
                "value": 1.5
              }
            }
          },
          "id": "4"
        }
      ],
      "position": {
        "x": 2.507488489151001,
        "y": 4.584233283996582,
        "z": 20
      },
      "orientation": {
        "x": 0,
        "y": 0,
        "z": 0,
        "w": 1
      },
      "scale": {
        "x": 3,
        "y": 3,
        "z": 1
      },
      "visible": true,
      "layer": 0,
      "prefab": null
    },
    {
      "id": "18",
      "name": "Entities",
      "children": [
        {
          "id": "19",
          "name": "Spawners",
          "children": [
            {
              "id": "20",
              "name": "Spawn_Fire",
              "children": [],
              "components": [
                {
                  "type": "Behavior",
                  "config": {
                    "behaviorName": "SpawnerBehavior",
                    "propertyValues": {
                      "prefab": {
                        "type": "string",
                        "value": "Assets/prefabs/elementals/Fire"
                      },
                      "range": {
                        "type": "number",
                        "value": 0.2
                      },
                      "spawnLimit": {
                        "type": "number",
                        "value": 1
                      },
                      "cooldown": {
                        "type": "number",
                        "value": 10
                      }
                    }
                  },
                  "id": "0"
                }
              ],
              "position": {
                "x": 5.858424186706543,
                "y": 1.3750001192092896,
                "z": 0
              },
              "orientation": {
                "x": 0,
                "y": 0,
                "z": 0,
                "w": 1
              },
              "scale": {
                "x": 1,
                "y": 1,
                "z": 1
              },
              "visible": true,
              "layer": 0,
              "prefab": null
            },
            {
              "id": "21",
              "name": "Spawn_Fire",
              "children": [],
              "components": [
                {
                  "type": "Behavior",
                  "config": {
                    "behaviorName": "SpawnerBehavior",
                    "propertyValues": {
                      "prefab": {
                        "type": "string",
                        "value": "Assets/prefabs/elementals/Fire"
                      },
                      "range": {
                        "type": "number",
                        "value": 0.2
                      },
                      "spawnLimit": {
                        "type": "number",
                        "value": 1
                      }
                    }
                  },
                  "id": "0"
                }
              ],
              "position": {
                "x": 1.4174736738204956,
                "y": 0.9941936135292053,
                "z": 0
              },
              "orientation": {
                "x": 0,
                "y": 0,
                "z": 0,
                "w": 1
              },
              "scale": {
                "x": 1,
                "y": 1,
                "z": 1
              },
              "visible": true,
              "layer": 0,
              "prefab": null
            },
            {
              "id": "22",
              "name": "Spawn_Fire",
              "children": [],
              "components": [
                {
                  "type": "Behavior",
                  "config": {
                    "behaviorName": "SpawnerBehavior",
                    "propertyValues": {
                      "prefab": {
                        "type": "string",
                        "value": "Assets/prefabs/elementals/Fire"
                      },
                      "range": {
                        "type": "number",
                        "value": 0.5
                      },
                      "spawnLimit": {
                        "type": "number",
                        "value": 3
                      },
                      "cooldown": {
                        "type": "number",
                        "value": 15
                      }
                    }
                  },
                  "id": "0"
                }
              ],
              "position": {
                "x": 2.4309420585632324,
                "y": 3.4942195415496826,
                "z": 0
              },
              "orientation": {
                "x": 0,
                "y": 0,
                "z": 0,
                "w": 1
              },
              "scale": {
                "x": 1,
                "y": 1,
                "z": 1
              },
              "visible": true,
              "layer": 0,
              "prefab": null
            },
            {
              "id": "23",
              "name": "Spawn_Fire",
              "children": [],
              "components": [
                {
                  "type": "Behavior",
                  "config": {
                    "behaviorName": "SpawnerBehavior",
                    "propertyValues": {
                      "prefab": {
                        "type": "string",
                        "value": "Assets/prefabs/elementals/Fire"
                      },
                      "range": {
                        "type": "number",
                        "value": 0.2
                      },
                      "spawnLimit": {
                        "type": "number",
                        "value": 1
                      },
                      "cooldown": {
                        "type": "number",
                        "value": 10
                      }
                    }
                  },
                  "id": "0"
                }
              ],
              "position": {
                "x": 3.425912857055664,
                "y": 0.5381191372871399,
                "z": 0
              },
              "orientation": {
                "x": 0,
                "y": 0,
                "z": 0,
                "w": 1
              },
              "scale": {
                "x": 1,
                "y": 1,
                "z": 1
              },
              "visible": true,
              "layer": 0,
              "prefab": null
            },
            {
              "id": "24",
              "name": "Spawn_Fire",
              "children": [],
              "components": [
                {
                  "type": "Behavior",
                  "config": {
                    "behaviorName": "SpawnerBehavior",
                    "propertyValues": {
                      "prefab": {
                        "type": "string",
                        "value": "Assets/prefabs/elementals/Fire"
                      },
                      "range": {
                        "type": "number",
                        "value": 0.2
                      },
                      "spawnLimit": {
                        "type": "number",
                        "value": 1
                      },
                      "cooldown": {
                        "type": "number",
                        "value": 10
                      }
                    }
                  },
                  "id": "0"
                }
              ],
              "position": {
                "x": 2.5540366172790527,
                "y": 6.059579372406006,
                "z": 0
              },
              "orientation": {
                "x": 0,
                "y": 0,
                "z": 0,
                "w": 1
              },
              "scale": {
                "x": 1,
                "y": 1,
                "z": 1
              },
              "visible": true,
              "layer": 0,
              "prefab": null
            }
          ],
          "components": [],
          "position": {
            "x": 0,
            "y": 0,
            "z": 0
          },
          "orientation": {
            "x": 0,
            "y": 0,
            "z": 0,
            "w": 1
          },
          "scale": {
            "x": 1,
            "y": 1,
            "z": 1
          },
          "visible": true,
          "layer": 0,
          "prefab": null
        }
      ],
      "components": [],
      "position": {
        "x": 0,
        "y": 0,
        "z": 3
      },
      "orientation": {
        "x": 0,
        "y": 0,
        "z": 0,
        "w": 1
      },
      "scale": {
        "x": 1,
        "y": 1,
        "z": 1
      },
      "visible": true,
      "layer": 0,
      "prefab": null
    }
  ]
}