{
  "formatVersion": 3,
  "maps": [
    "map"
  ],
  "filtering": "pixelated",
  "wrapping": "clampToEdge",
  "pixelsPerUnit": 100,
  "framesPerSecond": 6,
  "opacity": null,
  "alphaTest": 0.2,
  "frameOrder": "columns",
  "grid": {
    "width": 16,
    "height": 16
  },
  "origin": {
    "x": 0.5,
    "y": 0.5
  },
  "animations": [
    {
      "id": "0",
      "name": "down",
      "startFrameIndex": 0,
      "endFrameIndex": 3,
      "speed": 1
    },
    {
      "id": "1",
      "name": "up",
      "startFrameIndex": 4,
      "endFrameIndex": 7,
      "speed": 1
    },
    {
      "id": "2",
      "name": "left",
      "startFrameIndex": 8,
      "endFrameIndex": 11,
      "speed": 1
    },
    {
      "id": "3",
      "name": "right",
      "startFrameIndex": 12,
      "endFrameIndex": 15,
      "speed": 1
    }
  ],
  "mapSlots": {
    "map": "map",
    "light": null,
    "specular": null,
    "alpha": null,
    "normal": null
  }
}