{
  "formatVersion": 2,
  "isBitmap": true,
  "filtering": "pixelated",
  "pixelsPerUnit": 200,
  "size": 32,
  "color": "c0c0c0",
  "opacity": null,
  "gridWidth": 30,
  "gridHeight": 30,
  "charset": null,
  "charsetOffset": 32
}